<?xml version="1.0" standalone="no"?>
<!DOCTYPE svg PUBLIC "-//W3C//DTD SVG 1.1//EN" "http://www.w3.org/Graphics/SVG/1.1/DTD/svg11.dtd" >
<svg xmlns="http://www.w3.org/2000/svg">
<metadata>
This is a custom SVG font generated by IcoMoon.
<iconset grid="14"></iconset>
</metadata>
<defs>
<font id="apa" horiz-adv-x="448" >
<font-face units-per-em="448" ascent="384" descent="-64" />
<missing-glyph horiz-adv-x="448" />
<glyph class="hidden" unicode="&#xf000;" d="M0,384L 448 -64L0 -64 z" horiz-adv-x="0" />
<glyph unicode="&#xe000;" d="M 408.572,224.675l-61.793,0 c-6.687,77.472-57.643,137.882-119.205,137.882C 166.011,362.326, 115.055,302.147, 108.369,224.675L 46.575,224.675 c-9.453,0-17.293-7.839-17.293-17.293l0-275.533 
	c0-9.453, 7.839-17.293, 17.293-17.293l 362.227,0 c 9.453,0, 17.293,7.839, 17.293,17.293L 426.096,207.382 C 425.865,216.836, 418.256,224.675, 408.572,224.675z M 227.574,327.741c 42.886,0, 78.625-44.961, 84.62-103.296
	L 142.954,224.445 C 148.949,283.010, 184.688,327.741, 227.574,327.741z M 391.279-50.857L 63.868-50.857 L 63.868,190.090 l 43.809,0 l 240.025,0 l 43.809,0 L 391.51-50.857 z"  />
<glyph unicode="&#xf099;" d="M 405,282q-16.75-24.5 -40.5-41.75q 0.25-3.5 0.25-10.5q0-32.5 -9.5-64.875t-28.875-62.125t-46.125-52.625t-64.5-36.5t-80.75-13.625q-67.75,0 -124,36.25q 8.75-1 19.5-1q 56.25,0 100.25,34.5q-26.25,0.5 -47,16.125t-28.5,39.875q 8.25-1.25 15.25-1.25q 10.75,0 21.25,2.75q-28,5.75 -46.375,27.875t-18.375,51.375l0,1 q 17-9.5 36.5-10.25 q-16.5,11 -26.25,28.75t-9.75,38.5q0,22 11,40.75q 30.25-37.25 73.625-59.625t 92.875-24.875q-2,9.5 -2,18.5q0,33.5 23.625,57.125t 57.125,23.625q 35,0 59-25.5q 27.25,5.25 51.25,19.5q-9.25-28.75 -35.5-44.5q 23.25,2.5 46.5,12.5z" horiz-adv-x="416"  />
<glyph unicode="&#xf09a;" d="M 127.75,245l 64.25,0 l-7.5-71l-56.75,0 l0-206 l-85.25,0 l0,206 l-42.5,0 l0,71 l 42.5,0 l0,42.75 q0,45.5 21.5,68.875t 70.75,23.375l 56.75,0 l0-71 l-35.5,0 q-9.75,0 -15.625-1.625t-8.5-5.875t-3.375-8.625t-0.75-12.375l0-35.5 z" horiz-adv-x="192"  />
<glyph unicode="&#xf16d;" d="M 340.5,27.5l0,162 l-33.75,0 q 5-15.75 5-32.75q0-31.5 -16-58.125t-43.5-42.125t-60-15.5q-49.25,0 -84.25,33.875t-35,81.875q0,17 5,32.75l-35.25,0 l0-162 q0-6.5 4.375-10.875t 10.875-4.375l 267.25,0 q 6.25,0 10.75,4.375t 4.5,10.875zM 269.5,160.75q0,31 -22.625,52.875t-54.625,21.875q-31.75,0 -54.375-21.875t-22.625-52.875 t 22.625-52.875t 54.375-21.875q 32,0 54.625,21.875t 22.625,52.875zM 340.5,250.75l0,41.25 q0,7 -5,12.125t-12.25,5.125l-43.5,0 q-7.25,0 -12.25-5.125t-5-12.125l0-41.25 q0-7.25 5-12.25t 12.25-5l 43.5,0 q 7.25,0 12.25,5t 5,12.25zM 384,302.75l0-285.5 q0-20.25 -14.5-34.75t-34.75-14.5l-285.5,0 q-20.25,0 -34.75,14.5t-14.5,34.75l0,285.5 q0,20.25 14.5,34.75 t 34.75,14.5l 285.5,0 q 20.25,0 34.75-14.5t 14.5-34.75z" horiz-adv-x="384"  />
<glyph unicode="&#xf167;" d="M 242.75,73l0-52.75 q0-16.75 -9.75-16.75q-5.75,0 -11.25,5.5l0,75.25 q 5.5,5.5 11.25,5.5q 9.75,0 9.75-16.75zM 327.25,72.75l0-11.5 l-22.5,0 l0,11.5 q0,17 11.25,17t 11.25-17zM 85.75,127.25l 26.75,0 l0,23.5 l-78,0 l0-23.5 l 26.25,0 l0-142.25 l 25,0 l0,142.25 zM 157.75-15l 22.25,0 l0,123.5 l-22.25,0 l0-94.5 q-7.5-10.5 -14.25-10.5q-4.5,0 -5.25,5.25q-0.25,0.75 -0.25,8.75l0,91 l-22.25,0 l0-97.75 q0-12.25 2-18.25 q 3-9.25 14.5-9.25q 12,0 25.5,15.25l0-13.5 zM 265,22l0,49.25 q0,18.25 -2.25,24.75q-4.25,14 -17.75,14q-12.5,0 -23.25-13.5l0,54.25 l-22.25,0 l0-165.75 l 22.25,0 l0,12 q 11.25-13.75 23.25-13.75q 13.5,0 17.75,13.75q 2.25,6.75 2.25,25zM 349.5,24.5l0,3.25 l-22.75,0 q0-12.75 -0.5-15.25q-1.75-9 -10-9q-11.5,0 -11.5,17.25l0,21.75 l 44.75,0 l0,25.75 q0,19.75 -6.75,29q-9.75,12.75 -26.5,12.75q-17,0 -26.75-12.75 q-7-9.25 -7-29l0-43.25 q0-19.75 7.25-29q 9.75-12.75 27-12.75q 18,0 27,13.25q 4.5,6.75 5.25,13.5q 0.5,2.25 0.5,14.5zM 197.5,252.75l0,52.5 q0,17.25 -10.75,17.25t-10.75-17.25l0-52.5 q0-17.5 10.75-17.5t 10.75,17.5zM 377.25,65q0-58.5 -6.5-87.5q-3.5-14.75 -14.5-24.75t-25.5-11.5q-46-5.25 -138.75-5.25t-138.75,5.25q-14.5,1.5 -25.625,11.5t-14.375,24.75 q-6.5,28 -6.5,87.5q0,58.5 6.5,87.5q 3.5,14.75 14.5,24.75t 25.75,11.75q 45.75,5 138.5,5t 138.75-5q 14.5-1.75 25.625-11.75t 14.375-24.75q 6.5-28 6.5-87.5zM 127.75,384l 25.5,0 l-30.25-99.75l0-67.75 l-25,0 l0,67.75 q-3.5,18.5 -15.25,53q-9.25,25.75 -16.25,46.75l 26.5,0 l 17.75-65.75zM 220.25,300.75l0-43.75 q0-20.25 -7-29.5q-9.25-12.75 -26.5-12.75q-16.75,0 -26.25,12.75 q-7,9.5 -7,29.5l0,43.75 q0,20 7,29.25q 9.5,12.75 26.25,12.75q 17.25,0 26.5-12.75q 7-9.25 7-29.25zM 304,341.25l0-124.75 l-22.75,0 l0,13.75 q-13.25-15.5 -25.75-15.5q-11.5,0 -14.75,9.25q-2,6 -2,18.75l0,98.5 l 22.75,0 l0-91.75 q0-8.25 0.25-8.75q 0.75-5.5 5.25-5.5q 6.75,0 14.25,10.75l0,95.25 l 22.75,0 z" horiz-adv-x="384"  />
<glyph unicode="&#xf0d2;" d="M 384,160q0-52.25 -25.75-96.375t-69.875-69.875t-96.375-25.75q-27.75,0 -54.5,8q 14.75,23.25 19.5,41q 2.25,8.5 13.5,52.75q 5-9.75 18.25-16.875t 28.5-7.125q 30.25,0 54,17.125t 36.75,47.125t 13,67.5q0,28.5 -14.875,53.5t-43.125,40.75t-63.75,15.75q-26.25,0 -49-7.25t-38.625-19.25t-27.25-27.625t-16.75-32.375t-5.375-33.5 q0-26 10-45.75t 29.25-27.75q 7.5-3 9.5,5q 0.5,1.75 2,7.75t 2,7.5q 1.5,5.75 -2.75,10.75q-12.75,15.25 -12.75,37.75q0,37.75 26.125,64.875t 68.375,27.125q 37.75,0 58.875-20.5t 21.125-53.25q0-42.5 -17.125-72.25t-43.875-29.75q-15.25,0 -24.5,10.875t-5.75,26.125q 2,8.75 6.625,23.375t 7.5,25.75t 2.875,18.875q0,12.5 -6.75,20.75t-19.25,8.25 q-15.5,0 -26.25-14.25t-10.75-35.5q0-18.25 6.25-30.5l-24.75-104.5q-4.25-17.5 -3.25-44.25q-51.5,22.75 -83.25,70.25t-31.75,105.75q0,52.25 25.75,96.375t 69.875,69.875t 96.375,25.75t 96.375-25.75t 69.875-69.875t 25.75-96.375z" horiz-adv-x="384"  />
<glyph unicode="&#xf0d5;" d="M 219,17.75q0,5.25 -1.125,10.125t-2.375,9t-4.375,8.625t-5.25,7.625t-6.625,7.375t-6.875,6.375t-8,6.375t-7.75,5.75t-8.25,5.75t-7.625,5.25q-4.25,0.5 -12.5,0.5q-13.5,0 -26.5-1.75t-27-6.25t-24.5-11.5t-17.25-18.75t-6.75-26.75q0-17 8.875-30.375t 23.25-21t 30.125-11.375t 31.75-3.75q 14.75,0 28.125,3.125t 25.125,9.75t 18.625,18.375 t 6.875,27.5zM 189,233.25q0,15 -4.125,31.875t-11.75,32.625t-21,26t-29.875,10.25q-23.25,0 -36-17.25t-12.75-41.25q0-11.75 2.875-24.75t 8.875-26t 14-23.375t 19.5-16.875t 24.25-6.5q 24.25,0 35.125,15.125t 10.875,40.125zM 156.25,352l 109.25,0 l-33.75-19.75l-33.75,0 q 17.75-11.25 27.5-31.5t 9.75-42.25q0-18.5 -5.75-32.875t-14-23.125t-16.5-16.125 t-14-15.25t-5.75-16.875q0-6.5 4.125-12.75t 10.75-12t 14.625-12t 16-13.875t 14.625-16.5t 10.75-21.25t 4.125-26.625q0-40 -35-70.5q-38-32.75 -105-32.75q-14.75,0 -29.875,2.5t-30.5,8.375t-27.125,14.5t-19.25,22.25t-7.5,30.375q0,15.25 9.25,33.75q 8,16 24,27.625t 36.25,17.75t 38.75,9t 37.5,3.375q-16,20.75 -16,37.25q0,3 0.5,5.875 t 1.25,4.875t 2,5.375t 1.75,5.375q-10-1.25 -17.5-1.25q-37.25,0 -63.875,24.5t-26.625,61.5q0,35 23.75,62.625t 58.5,35.375q 23.5,5 46.75,5zM 416,288l0-32 l-64,0 l0-64 l-32,0 l0,64 l-64,0 l0,32 l 64,0 l0,64 l 32,0 l0-64 l 64,0 z" horiz-adv-x="416"  />
<glyph unicode="&#xf0e1;" d="M 87.25,227.75l0-247.75 l-82.5,0 l0,247.75 l 82.5,0 zM 92.5,304.25q 0.25-18.25 -12.625-30.5t-33.875-12.25l-0.5,0 q-20.5,0 -33,12.25t-12.5,30.5q0,18.5 12.875,30.625t 33.625,12.125t 33.25-12.125t 12.75-30.625zM 384,122l0-142 l-82.25,0 l0,132.5 q0,26.25 -10.125,41.125t-31.625,14.875q-15.75,0 -26.375-8.625t-15.875-21.375q-2.75-7.5 -2.75-20.25l0-138.25 l-82.25,0  q 0.5,99.75 0.5,161.75t-0.25,74l-0.25,12l 82.25,0 l0-36 l-0.5,0 q 5,8 10.25,14t 14.125,13t 21.75,10.875t 28.625,3.875q 42.75,0 68.75-28.375t 26-83.125z" horiz-adv-x="384"  />
<glyph unicode="&#xe001;" d="M 444.010-21.342c 5.334-5.334, 5.334-13.986,0-19.334l-19.334-19.334
	c-5.348-5.334-14-5.334-19.334,0l-135.352,135.352c-1.47,1.47-2.45,3.206-3.108,5.054C 239.12,60.11, 205.030,48, 168,48
	C 75.222,48,0,123.222,0,216C0,308.778, 75.222,384, 168,384c 92.778,0, 168-75.222, 168-168c0-37.030-12.11-71.12-32.396-98.882
	c 1.848-0.658, 3.584-1.624, 5.054-3.108L 444.010-21.342z M 168,328c-61.852,0-112-50.148-112-112c0-61.852, 50.148-112, 112-112s 112,50.148, 112,112
	C 280,277.852, 229.852,328, 168,328z"  />
<glyph unicode="&#xe002;" d="M 168,160C 75.25,160,0,84.75,0-8c0-30.954, 25.046-56, 56-56l 224,0 c 30.954,0, 56,25.046, 56,56
			C 336,84.75, 260.75,160, 168,160zM 84,300A84,84 1980 1 1 252,300A84,84 1980 1 1 84,300z" horiz-adv-x="336"  />
<glyph unicode="&#xe003;" d="M 28,300L 420,300L 420,216L 28,216zM 28,188L 420,188L 420,104L 28,104zM 28,76L 420,76L 420-8L 28-8z"  />
<glyph unicode="&#x20;" horiz-adv-x="224" />
</font></defs></svg>